{
  "data": [
    {
      "_id": "1e24db5d-f8ed-4f71-885a-1b9a77530e9e",
      "isOnline": false,
      "name": "Maurine",
      "avatar": "https://cloudflare-ipfs.com/ipfs/Qmd3W5DuhgHirLHGVixi6V76LhCkZUz6pnFt5AJBiyvHye/avatar/775.jpg",
      "lastName": "Harber",
      "username": "Clementine.Boyle",
      "email": "Dovie_Howell79@gmail.com",
      "phone": "+34 6782 828 121",
      "inscriptionDate": "02/06/2022",
      "courses": [
        {
          "_id": "d102c6b4-ecc8-4733-9a4f-b51afd7f3826",
          "title": "Ex dolorem voluptate ut suscipit et libero corrupti dolore quasi.",
          "description": "Et culpa laboriosam. Necessitatibus dolor totam reprehenderit voluptas necessitatibus voluptatem aliquid delectus. Deserunt sequi modi. Et ad architecto.",
          "percentCompleted": 48,
          "inscriptionDate": "09/08/2022"
        },
        {
          "_id": "3939d277-5dcf-41a7-a015-c46183be887d",
          "title": "Maxime magni odit qui porro occaecati accusantium.",
          "description": "Earum eligendi odit ipsum. Accusamus et corporis rerum quod dignissimos repellendus omnis. Minus voluptas doloremque qui aut fuga. Et explicabo eveniet perferendis. Perferendis sunt quibusdam quis sint et tenetur saepe est.",
          "percentCompleted": 91,
          "inscriptionDate": "18/03/2022"
        },
        {
          "_id": "30ebd893-0949-4765-8cab-0bb1af55b424",
          "title": "Et esse tempora sed recusandae commodi consectetur necessitatibus voluptates mollitia.",
          "description": "Voluptatem voluptas necessitatibus eveniet et deleniti qui. Iure eligendi dolore et. Explicabo est quibusdam possimus consequuntur tenetur beatae ipsa rerum animi. Asperiores itaque placeat. Laudantium et nemo aut quia qui ea consectetur. Tempore rerum est similique.",
          "percentCompleted": 49,
          "inscriptionDate": "02/04/2022"
        },
        {
          "_id": "64717d0c-6638-4989-a2ff-82f46ea1a170",
          "title": "Labore hic suscipit unde aut nam iusto consequuntur consectetur.",
          "description": "Itaque aut facilis non illum officia. Eius quis illo quos quia. Molestiae aut eveniet quibusdam. Qui molestiae voluptatem.",
          "percentCompleted": 91,
          "inscriptionDate": "08/04/2022"
        },
        {
          "_id": "2eef73d6-a192-4c3d-9134-ac417537d56f",
          "title": "Consectetur inventore blanditiis.",
          "description": "Autem nostrum et adipisci sunt. Velit temporibus sit est explicabo doloribus sed fugit aut. Blanditiis laborum ipsam iure ad laborum aspernatur ex dolorum omnis. Asperiores eos ut et odit quis.",
          "percentCompleted": 34,
          "inscriptionDate": "13/04/2022"
        },
        {
          "_id": "928807c8-c2b8-4930-b441-706338894bd0",
          "title": "Maxime debitis laborum accusamus et ut.",
          "description": "Sit cupiditate libero et. Qui repellat nisi impedit ea molestiae et perferendis aut esse. Qui aut velit velit. Itaque quos qui sint et.",
          "percentCompleted": 62,
          "inscriptionDate": "08/01/2022"
        },
        {
          "_id": "64b5c2b8-057f-42fc-86b7-6302e8f4672a",
          "title": "Incidunt odio et hic omnis et eum perspiciatis at.",
          "description": "At non minus ut iste et non quibusdam esse. Illo sint voluptas ducimus quia consequatur natus quaerat qui fugit. Eos omnis soluta omnis alias. Nostrum qui et odio quisquam quia maiores sit.",
          "percentCompleted": 95,
          "inscriptionDate": "25/09/2022"
        }
      ]
    },
    {
      "_id": "9567e902-a361-4c4d-b6c1-895364badc7d",
      "isOnline": true,
      "name": "Kameron",
      "avatar": "https://cloudflare-ipfs.com/ipfs/Qmd3W5DuhgHirLHGVixi6V76LhCkZUz6pnFt5AJBiyvHye/avatar/1222.jpg",
      "lastName": "Johnston",
      "username": "Arlie.Hamill",
      "email": "Yessenia_Reynolds7@yahoo.com",
      "phone": "+34 6763 679 329",
      "inscriptionDate": "24/03/2022",
      "courses": [
        {
          "_id": "2145c2d4-323f-4f30-952f-a2f74c21d14c",
          "title": "Error aut corrupti quos.",
          "description": "Occaecati quos repellat maxime corporis deleniti eligendi optio. Est qui molestiae a laudantium. Blanditiis corporis ipsa fugit odit vel voluptatum corrupti architecto.",
          "percentCompleted": 15,
          "inscriptionDate": "26/05/2022"
        },
        {
          "_id": "ce411dff-148d-4aac-9747-0794994b2e5d",
          "title": "Impedit ea vel.",
          "description": "Et magni adipisci qui sint similique incidunt ut illum. Reiciendis consequatur rerum dicta architecto. Autem et distinctio at. Natus tempora pariatur magni perferendis voluptate eum.",
          "percentCompleted": 16,
          "inscriptionDate": "07/10/2022"
        },
        {
          "_id": "13499337-c574-48de-9d82-b0c02cbc4943",
          "title": "Nam aperiam aut.",
          "description": "Corrupti accusantium qui. Cupiditate adipisci voluptatem harum laborum quo molestias. Dolores molestias aut.",
          "percentCompleted": 87,
          "inscriptionDate": "12/02/2022"
        },
        {
          "_id": "1a2d4705-b749-472a-9209-e68fc57f0753",
          "title": "Qui blanditiis vitae est aperiam optio.",
          "description": "Quam asperiores voluptatum quia impedit recusandae quae eveniet. Nam reiciendis sit ut ut alias rem earum. Deserunt laudantium ut in et dolorem atque repellendus officiis recusandae. Illo ut quia nobis expedita est est.",
          "percentCompleted": 12,
          "inscriptionDate": "24/03/2022"
        }
      ]
    },
    {
      "_id": "596de6be-7c0a-4e29-aee2-aa4a030e5b9f",
      "isOnline": false,
      "name": "Oscar",
      "avatar": "https://cloudflare-ipfs.com/ipfs/Qmd3W5DuhgHirLHGVixi6V76LhCkZUz6pnFt5AJBiyvHye/avatar/24.jpg",
      "lastName": "Sipes",
      "username": "Derrick20",
      "email": "Christophe.Torp@hotmail.com",
      "phone": "+34 6068 881 147",
      "inscriptionDate": "18/11/2021",
      "courses": [
        {
          "_id": "6401720a-8842-45fb-a3d1-86795b39fc05",
          "title": "Ipsum animi perferendis omnis odio ex.",
          "description": "Perferendis minima laudantium earum nulla in error. Perferendis dolor doloremque quibusdam labore illo cupiditate autem aut. Aut saepe modi. Ad ex eos autem molestiae aut rerum et deleniti adipisci.",
          "percentCompleted": 86,
          "inscriptionDate": "08/08/2022"
        },
        {
          "_id": "3d5787a1-7eda-43d6-9da1-0f39bcbdf308",
          "title": "Alias velit veritatis tempora quibusdam vel eligendi molestiae qui commodi.",
          "description": "Fugiat occaecati libero et esse ab sed sint animi. Voluptatem nisi dolores vel et suscipit accusamus odio. Id voluptas magnam id cum consequuntur.",
          "percentCompleted": 77,
          "inscriptionDate": "10/12/2021"
        },
        {
          "_id": "b6e5d57d-19f6-48e2-b500-7308a14bae03",
          "title": "Quo excepturi culpa.",
          "description": "Et dolorem doloribus odio voluptatem voluptas corporis minus reiciendis sapiente. Sapiente vero autem. Consectetur sit recusandae harum officia consequuntur ea ad. Vel molestias modi est possimus molestiae fugiat nihil quod vel. Dolore cupiditate et ea animi magnam vitae voluptas aut. Itaque facilis est.",
          "percentCompleted": 40,
          "inscriptionDate": "11/09/2022"
        },
        {
          "_id": "8a03d516-f9d4-49db-bcce-ee54dfff87df",
          "title": "Porro sit laboriosam.",
          "description": "Enim cumque aut cupiditate dolore enim hic explicabo. Incidunt non est aut expedita nulla ut quis dolorum. Animi molestiae est laborum aspernatur laboriosam voluptates sit. Sed laudantium ut occaecati aut. Qui fuga ullam debitis. Aut et nemo est minus magnam praesentium a.",
          "percentCompleted": 97,
          "inscriptionDate": "04/10/2022"
        },
        {
          "_id": "2d0d90d8-a7bc-426c-bba8-34d455739237",
          "title": "Aperiam ea voluptas animi voluptatem.",
          "description": "Iste quisquam quae dolor. Rem dolor illo laudantium et eum. Cumque cupiditate dolores est nulla culpa id. Omnis omnis est ut quo voluptatem commodi vel. Qui rem enim in voluptatem sint amet autem. Fuga dicta ut ut quisquam dicta.",
          "percentCompleted": 51,
          "inscriptionDate": "04/12/2021"
        },
        {
          "_id": "cf2fc679-02bd-45dd-a2e9-0c1df3737f8c",
          "title": "Explicabo alias dolor.",
          "description": "Corrupti non odit. Iusto ea ipsa veritatis sed placeat. Illum quam ex nulla soluta.",
          "percentCompleted": 47,
          "inscriptionDate": "26/11/2021"
        },
        {
          "_id": "45a01c2e-7aea-43dd-a88f-54ca4990748e",
          "title": "Iste doloremque sunt quibusdam et vero sit dolor sed.",
          "description": "Libero beatae ab nobis dolores fugiat. Architecto non voluptates. In blanditiis nostrum iste. Rerum voluptatem aperiam dignissimos et dolor vero voluptas.",
          "percentCompleted": 26,
          "inscriptionDate": "23/04/2022"
        }
      ]
    },
    {
      "_id": "4ee1dd41-a06d-4e53-97b7-bf1955889327",
      "isOnline": true,
      "name": "Shanna",
      "avatar": "https://cloudflare-ipfs.com/ipfs/Qmd3W5DuhgHirLHGVixi6V76LhCkZUz6pnFt5AJBiyvHye/avatar/764.jpg",
      "lastName": "Greenholt",
      "username": "Oswald.Stracke70",
      "email": "Lilly_Goldner10@gmail.com",
      "phone": "+34 6180 774 620",
      "inscriptionDate": "28/08/2022",
      "courses": []
    },
    {
      "_id": "e809a3d7-bfbe-40d8-9ee5-529c05e5da6f",
      "isOnline": true,
      "name": "Margarett",
      "avatar": "https://cloudflare-ipfs.com/ipfs/Qmd3W5DuhgHirLHGVixi6V76LhCkZUz6pnFt5AJBiyvHye/avatar/1064.jpg",
      "lastName": "Murazik",
      "username": "Israel.Roberts",
      "email": "Zena_Herzog18@gmail.com",
      "phone": "+34 6981 978 254",
      "inscriptionDate": "12/08/2022",
      "courses": [
        {
          "_id": "8e940b66-55d4-4032-b8bc-ea0416af36ad",
          "title": "Placeat sed cum porro.",
          "description": "Pariatur voluptatibus natus ea voluptatum sed aut perspiciatis architecto doloremque. Iusto est dolorem vel aut id. Culpa quod quia distinctio. Molestias et et. Est vel ut dolorem quis.",
          "percentCompleted": 92,
          "inscriptionDate": "02/04/2022"
        },
        {
          "_id": "fa6f3d76-13dc-4976-82ae-101977b9e9f8",
          "title": "Laboriosam similique cum suscipit qui ut in voluptas quibusdam.",
          "description": "Quis error voluptatem quae ab quos consectetur. Non et debitis. Minus voluptas dolor impedit consequuntur et. Impedit consequatur enim tempora illum. Sint eos tenetur dignissimos. Reiciendis distinctio quis porro iusto sunt sit asperiores id.",
          "percentCompleted": 15,
          "inscriptionDate": "18/12/2021"
        },
        {
          "_id": "39a40bc6-ff96-49b8-b276-aaebd335f484",
          "title": "Labore qui ipsam quisquam voluptatem est eos saepe vitae.",
          "description": "Sunt unde aut quisquam dicta ea vero et aliquid recusandae. Vel ut error accusantium. Consequatur labore nemo saepe expedita sequi sint cumque suscipit porro. Voluptatem rerum officia esse. Maiores error maxime vitae facilis totam voluptatibus nesciunt. Quaerat doloremque eum at consectetur quia cum omnis.",
          "percentCompleted": 39,
          "inscriptionDate": "14/03/2022"
        },
        {
          "_id": "ca57844b-8af4-41c4-aa22-40ad803ec22b",
          "title": "Autem et rerum voluptatem assumenda.",
          "description": "Provident sit et et voluptas nam. Et quasi nihil rerum harum qui vel consequatur reiciendis. Assumenda sit fuga nihil placeat at doloribus qui.",
          "percentCompleted": 22,
          "inscriptionDate": "29/10/2021"
        },
        {
          "_id": "86326034-8d3e-4319-a50d-e479afcc0fdf",
          "title": "Velit dolorum dolore.",
          "description": "Iste et rerum quam vel quam qui mollitia. Fuga animi temporibus dolores dolores dolorem impedit magni adipisci. Temporibus dignissimos magni illo. Esse esse adipisci modi corrupti. Mollitia blanditiis reiciendis odio possimus.",
          "percentCompleted": 8,
          "inscriptionDate": "02/12/2021"
        },
        {
          "_id": "f10fc0fe-8fe0-4e9a-919f-08f5a64defc3",
          "title": "Aperiam sint deleniti sed sint alias.",
          "description": "Voluptatem odit atque quae reprehenderit. Vitae adipisci hic quia nemo. Blanditiis cupiditate dolor exercitationem et similique quod enim. Odio excepturi minus sed. Debitis sunt atque molestiae enim unde non perspiciatis omnis ipsum. Quia sint voluptatem dolorem nemo.",
          "percentCompleted": 37,
          "inscriptionDate": "24/02/2022"
        }
      ]
    },
    {
      "_id": "1d033f27-e8a5-4dfb-94df-7a2b6c599277",
      "isOnline": true,
      "name": "Vicky",
      "avatar": "https://cloudflare-ipfs.com/ipfs/Qmd3W5DuhgHirLHGVixi6V76LhCkZUz6pnFt5AJBiyvHye/avatar/1061.jpg",
      "lastName": "Leffler",
      "username": "Lisette.Nicolas83",
      "email": "Isadore.Lind@hotmail.com",
      "phone": "+34 6749 655 620",
      "inscriptionDate": "28/10/2021",
      "courses": [
        {
          "_id": "6d23074e-8b96-44a1-9ae7-19db0e84272a",
          "title": "Dolores aspernatur quod iste.",
          "description": "Mollitia expedita est consequatur facilis ut aspernatur tenetur ut quia. Tempore et laudantium. Est qui ullam molestias. Consequatur nulla autem aut sequi quis neque. Voluptatibus eum dolorem. Tempore eos rem reprehenderit nam inventore voluptas doloremque qui nihil.",
          "percentCompleted": 69,
          "inscriptionDate": "28/07/2022"
        },
        {
          "_id": "21cff771-8ff2-4dfc-ac3b-7d251724e9bf",
          "title": "Aut tempore sed.",
          "description": "Quidem quasi magni natus qui et ut ipsum. Aut officiis ullam deserunt assumenda occaecati doloribus eaque. Quis beatae illo nesciunt et itaque consequuntur odio consequatur eligendi. Molestias qui possimus.",
          "percentCompleted": 61,
          "inscriptionDate": "24/02/2022"
        },
        {
          "_id": "6a36e7b0-9e36-44d0-a848-1ddc66e1d25f",
          "title": "Illo similique perferendis labore est expedita repellat explicabo labore.",
          "description": "Facere id doloribus ducimus cum error iste. Quia accusamus amet laborum. Est fugiat laboriosam voluptas hic quidem ut natus doloribus.",
          "percentCompleted": 74,
          "inscriptionDate": "02/03/2022"
        },
        {
          "_id": "f6847601-fdec-48a2-bfee-21ed781cf18f",
          "title": "Quis dolores quae non nihil voluptas.",
          "description": "Fuga voluptates et est numquam ea blanditiis dolores voluptatem nobis. Rerum ratione qui. Adipisci quia nobis. Sint saepe quae quis aperiam enim.",
          "percentCompleted": 85,
          "inscriptionDate": "11/07/2022"
        }
      ]
    },
    {
      "_id": "dd9722a8-a6e6-4e02-b237-a92c08d7410b",
      "isOnline": true,
      "name": "Bridie",
      "avatar": "https://cloudflare-ipfs.com/ipfs/Qmd3W5DuhgHirLHGVixi6V76LhCkZUz6pnFt5AJBiyvHye/avatar/1171.jpg",
      "lastName": "Auer",
      "username": "Felicia26",
      "email": "Daniela.Jones@gmail.com",
      "phone": "+34 6509 850 120",
      "inscriptionDate": "23/04/2022",
      "courses": [
        {
          "_id": "6942237e-6227-4a45-96c8-d3833f0b937a",
          "title": "Eum temporibus quasi et laudantium earum.",
          "description": "Quidem numquam dolor atque qui aut odit. Ab dolores qui nihil et ut et eaque soluta molestiae. Magnam praesentium sunt repudiandae magnam delectus. Quo optio quasi voluptas perferendis id sit quasi iure. Excepturi id laboriosam et. Consequatur cum iure et dolorem error nihil.",
          "percentCompleted": 26,
          "inscriptionDate": "22/10/2021"
        },
        {
          "_id": "544f108a-584d-4162-8276-56af37c8b7cf",
          "title": "Asperiores odio necessitatibus sequi id non repellat culpa qui.",
          "description": "Magni praesentium quia excepturi dignissimos sequi reiciendis. Velit in cupiditate consequuntur. Vitae molestiae nihil provident cum qui commodi quibusdam beatae. Sunt voluptatem est.",
          "percentCompleted": 81,
          "inscriptionDate": "25/07/2022"
        },
        {
          "_id": "0d9a466f-5baa-4529-a066-f4dca1ffb8c9",
          "title": "Cum labore error reiciendis explicabo.",
          "description": "Enim adipisci maiores mollitia perspiciatis quod. Ducimus dolore laudantium quidem ut. Veritatis necessitatibus eligendi. In aut vel aliquam cupiditate sint. Accusantium ipsa molestiae.",
          "percentCompleted": 92,
          "inscriptionDate": "06/05/2022"
        },
        {
          "_id": "dcd73953-0871-4bc2-b600-520c888f0c08",
          "title": "Nemo dolorum consectetur eum asperiores at delectus fugit magni asperiores.",
          "description": "Quibusdam temporibus repellat non aspernatur rerum quia repudiandae. Inventore et ducimus eos sint et. At nobis similique nam animi et assumenda sit et. Consequatur omnis maiores explicabo a delectus in. Illum quis est expedita numquam aut ut. Eius quibusdam voluptates atque inventore.",
          "percentCompleted": 78,
          "inscriptionDate": "11/11/2021"
        }
      ]
    },
    {
      "_id": "21d9c7e0-0bc4-4f90-9b3c-209a069aa916",
      "isOnline": true,
      "name": "Adeline",
      "avatar": "https://cloudflare-ipfs.com/ipfs/Qmd3W5DuhgHirLHGVixi6V76LhCkZUz6pnFt5AJBiyvHye/avatar/25.jpg",
      "lastName": "Balistreri",
      "username": "Alejandrin.Rice33",
      "email": "Dario.Moore5@hotmail.com",
      "phone": "+34 6883 552 845",
      "inscriptionDate": "10/08/2022",
      "courses": [
        {
          "_id": "abaa8141-d044-48af-9e4d-dcbd36434feb",
          "title": "Nostrum molestias dolorem nostrum sed.",
          "description": "Quod eius facere et. Non ut dolorem. Explicabo totam voluptatum assumenda saepe et maxime nobis reiciendis.",
          "percentCompleted": 77,
          "inscriptionDate": "08/12/2021"
        },
        {
          "_id": "10236e48-00d8-466d-81da-89ce62eb1b67",
          "title": "Vitae animi id ratione.",
          "description": "Sunt quae alias suscipit enim placeat ea autem recusandae alias. Totam distinctio nisi molestiae delectus suscipit esse blanditiis eos. Voluptate vitae perferendis amet impedit magni alias molestiae. Quasi ut incidunt. Perspiciatis et accusamus minima quod.",
          "percentCompleted": 90,
          "inscriptionDate": "21/04/2022"
        },
        {
          "_id": "4d19a961-66cb-4b14-a01c-4c7aabeb74ee",
          "title": "Et dolorem quia maxime.",
          "description": "Qui tenetur ut fuga sit. Facilis a laborum harum quo quia. Est officia ea rem magni earum.",
          "percentCompleted": 27,
          "inscriptionDate": "13/06/2022"
        },
        {
          "_id": "f9188e9d-a470-4b57-8b8f-b505d00c1acd",
          "title": "Qui voluptas quis modi doloremque atque quia consectetur explicabo.",
          "description": "Voluptatem fuga eum sit. Odit et totam ea est recusandae reiciendis ea consequatur. Nisi cupiditate exercitationem cumque autem magni quaerat labore quibusdam doloremque.",
          "percentCompleted": 88,
          "inscriptionDate": "28/10/2021"
        },
        {
          "_id": "abae93a7-fe71-427d-b6e1-bd5e0fe5c549",
          "title": "Architecto beatae qui praesentium velit accusantium enim modi.",
          "description": "Aut quia nemo in et beatae. Id inventore nesciunt et quae debitis rerum. Est qui ratione laborum sint vitae sint eaque reiciendis. Et eos labore sed.",
          "percentCompleted": 57,
          "inscriptionDate": "27/02/2022"
        },
        {
          "_id": "250ae7ff-c767-4993-8c21-dda0f2763adf",
          "title": "Doloribus laborum et dolor ullam sunt culpa laudantium consectetur.",
          "description": "Quia non velit. Tenetur consequuntur molestiae. Nobis eaque id sequi. Et sit odit optio enim exercitationem ut. Quis blanditiis est cupiditate possimus quidem aliquid. Quidem fugit a quia ab.",
          "percentCompleted": 21,
          "inscriptionDate": "29/11/2021"
        },
        {
          "_id": "afad2547-4627-4b52-bf0b-7c2a9b73ceaa",
          "title": "Labore omnis cum consequatur veniam molestiae in aut illo at.",
          "description": "Veniam sapiente temporibus rem minus autem. Voluptatibus qui occaecati alias non. Beatae quis hic. Amet nam eum vero nihil porro tenetur mollitia vitae.",
          "percentCompleted": 94,
          "inscriptionDate": "27/03/2022"
        },
        {
          "_id": "2117e669-9bf4-43c2-b6fc-f9a9713fa7d2",
          "title": "Nesciunt sint fuga et.",
          "description": "Nulla dolore aut eveniet earum consequatur officiis veniam quia explicabo. Omnis soluta est iure et et numquam praesentium. Voluptas sint dolorum molestiae ad. Iure veniam consequatur praesentium voluptates illum perferendis sint rem ut. Itaque impedit blanditiis et voluptatem. Veniam sequi amet earum doloremque.",
          "percentCompleted": 26,
          "inscriptionDate": "31/12/2021"
        },
        {
          "_id": "0ae4289f-c018-4e62-8980-bff85c1877ef",
          "title": "Beatae perspiciatis quas excepturi voluptatibus nisi repudiandae dicta voluptas.",
          "description": "Perferendis voluptates rerum dolores et reprehenderit numquam et. Perspiciatis et blanditiis numquam nobis tenetur quam ut. Aspernatur consequatur ad autem. Sequi totam ipsam aut. Repellat natus temporibus autem enim debitis libero. Architecto et aut.",
          "percentCompleted": 26,
          "inscriptionDate": "17/06/2022"
        },
        {
          "_id": "ece744cd-9093-4e58-b215-e7eae53f34ea",
          "title": "Commodi dolor asperiores quae possimus aliquam voluptatem repellat voluptas repellat.",
          "description": "Et ex velit minima et vero occaecati beatae. Tempora aut voluptatem et eligendi reiciendis. Excepturi ut laudantium laudantium. Incidunt voluptates beatae ea facilis odit. Perspiciatis quo nulla et sapiente excepturi perferendis dignissimos eaque. Velit ut quisquam dicta molestias autem.",
          "percentCompleted": 25,
          "inscriptionDate": "08/06/2022"
        }
      ]
    },
    {
      "_id": "e9c7f314-a53d-4f8c-926a-358f63d048de",
      "isOnline": false,
      "name": "Madie",
      "avatar": "https://cloudflare-ipfs.com/ipfs/Qmd3W5DuhgHirLHGVixi6V76LhCkZUz6pnFt5AJBiyvHye/avatar/1247.jpg",
      "lastName": "Bruen",
      "username": "Ebony8",
      "email": "Lewis.Pollich71@yahoo.com",
      "phone": "+34 6611 617 960",
      "inscriptionDate": "22/10/2021",
      "courses": [
        {
          "_id": "bf4bc335-ccb6-4f41-9280-4eef2beaa97f",
          "title": "Ducimus omnis nostrum asperiores.",
          "description": "Saepe illo ut id laboriosam et. Sunt voluptate ipsam natus facilis voluptates quisquam suscipit eius. Cum labore earum. Est error rem vel. Enim qui quis itaque perferendis tempora. Et ut cum consequatur aut est molestias porro.",
          "percentCompleted": 16,
          "inscriptionDate": "16/04/2022"
        },
        {
          "_id": "27c29df1-cc38-4a20-9c72-1269b89f0000",
          "title": "Sit quis voluptatem enim est optio.",
          "description": "Perspiciatis aut mollitia inventore. Ad eius aut ut tenetur deleniti esse molestiae. Voluptas expedita repellat soluta vel. Voluptatem ab cum dignissimos facere.",
          "percentCompleted": 53,
          "inscriptionDate": "11/02/2022"
        },
        {
          "_id": "48bad2ac-11d8-4997-adc0-6bde552ac63b",
          "title": "Voluptatem culpa perferendis cumque maiores et.",
          "description": "Et est error vel qui ex molestiae. Maxime autem quibusdam unde laboriosam dolorem non. Necessitatibus nisi ad culpa et. Est debitis et et qui blanditiis praesentium nam. Temporibus ipsam aut quidem doloremque quod ad. Minima in et.",
          "percentCompleted": 49,
          "inscriptionDate": "10/07/2022"
        }
      ]
    },
    {
      "_id": "36a5f682-2a98-4301-bc64-95b0d99cf189",
      "isOnline": true,
      "name": "Enrique",
      "avatar": "https://cloudflare-ipfs.com/ipfs/Qmd3W5DuhgHirLHGVixi6V76LhCkZUz6pnFt5AJBiyvHye/avatar/1064.jpg",
      "lastName": "Graham",
      "username": "Elisabeth.Lebsack10",
      "email": "Jamir.Emard59@gmail.com",
      "phone": "+34 6033 835 772",
      "inscriptionDate": "25/11/2021",
      "courses": [
        {
          "_id": "2ff53d17-025a-4c0b-a162-a5d1d43a8310",
          "title": "Et voluptatibus quas et aut sed reprehenderit.",
          "description": "Fuga eligendi eaque tempora qui quaerat magnam. Quae aliquam et sit nostrum ipsum. Ullam cum quae dolores doloribus sit perspiciatis.",
          "percentCompleted": 92,
          "inscriptionDate": "12/04/2022"
        },
        {
          "_id": "1b8c63ec-9585-4c84-abcb-152b24092410",
          "title": "Harum nostrum soluta et vel ut ut autem.",
          "description": "Quo qui ea occaecati dolorum omnis corrupti et. Placeat ex ut. Qui veniam ducimus non voluptatibus magnam voluptas quia autem doloribus. Facere voluptate minima saepe nostrum omnis blanditiis. Minima illum fugiat.",
          "percentCompleted": 7,
          "inscriptionDate": "29/03/2022"
        },
        {
          "_id": "c1462477-bb15-4fc2-bd16-61541798299a",
          "title": "Minima occaecati consequatur illo.",
          "description": "Facilis nesciunt non soluta rerum corporis quaerat commodi rerum nihil. Velit sit cum. Consequatur eligendi voluptate cum quod dolor perspiciatis. Eos voluptatibus praesentium et quae similique ipsam. Mollitia adipisci est est voluptas molestias hic vel facere esse.",
          "percentCompleted": 68,
          "inscriptionDate": "16/11/2021"
        },
        {
          "_id": "555c0638-66f3-45f8-b98d-424c6fd496de",
          "title": "Tempora esse nulla voluptate ullam et.",
          "description": "Ab veritatis vero animi omnis nobis. Dolores asperiores fugit velit recusandae. Laboriosam eum a quas accusamus. Qui odio commodi est autem voluptas hic aspernatur illum. Quibusdam possimus ex quis.",
          "percentCompleted": 92,
          "inscriptionDate": "30/10/2021"
        },
        {
          "_id": "8e7fe27e-1639-48c7-b52e-2be8539db131",
          "title": "Tempore vitae harum fugiat id autem ut.",
          "description": "Illo praesentium libero voluptate soluta voluptatem temporibus qui. Et aut explicabo expedita deleniti. Illo autem et. Vitae possimus magni tenetur quas est aut suscipit eos velit.",
          "percentCompleted": 87,
          "inscriptionDate": "21/06/2022"
        },
        {
          "_id": "fa57dc6d-5560-4e80-9524-86f8fb96933e",
          "title": "Qui illo ut harum.",
          "description": "Omnis commodi non facilis blanditiis officiis eligendi possimus. Asperiores rem velit ea distinctio consequatur non repellat ipsam. Magnam libero quo voluptatem laudantium. Facere qui quasi deserunt odit vitae quis.",
          "percentCompleted": 80,
          "inscriptionDate": "04/06/2022"
        },
        {
          "_id": "8ad9e982-eb09-4c05-adc1-2175f6c33a48",
          "title": "Dolorum quibusdam voluptates velit vitae molestiae asperiores nam aut dolorum.",
          "description": "Rem nesciunt unde possimus maiores perspiciatis reiciendis qui. Aliquid in at aut corrupti qui eius omnis. Vero ad rerum totam fuga. Sed laborum aut eaque est voluptatem natus.",
          "percentCompleted": 42,
          "inscriptionDate": "25/06/2022"
        },
        {
          "_id": "8304e02a-259d-4bdc-844f-fb99611f0dd7",
          "title": "Alias et perspiciatis et eum nisi velit.",
          "description": "Nam laborum sunt. Sed in necessitatibus quia ullam et et et nihil. Itaque est dolores ea quibusdam quia sit at iure omnis. Voluptate in labore in ipsum quis non.",
          "percentCompleted": 69,
          "inscriptionDate": "25/03/2022"
        }
      ]
    }
  ],
  "pagination": {
    "total": 1392,
    "page": 2,
    "pageSize": 10,
    "totalPages": 140
  }
}